{
    "editor": [
        {
            "icon": "",
            "key": "preGame",
            "header": "Pre Game Settings",
            "disabled": false,
            "fields": [
                {
                    "key": "bgImg",
                    "header": "Game Background Image",
                    "type": "image"
                },
                {
                    "key": "bg2Img",
                    "header": "Background Image",
                    "type": "image"
                },
                {
                    "key": "platform",
                    "header": "Platform Image",
                    "type": "image"
                },
                {
                    "key": "logo",
                    "header": "Logo",
                    "type": "image"
                },
                {
                    "key": "title",
                    "header": "Game Title",
                    "type": "text"
                },
                {
                    "key": "ballThrow",
                    "header": "Ball Throw",
                    "type": "sound"
                },
                {
                    "key": "ballHit",
                    "header": "Ball Hit",
                    "type": "sound"
                },
                {
                    "key": "score",
                    "header": "Ball Score",
                    "type": "sound"
                },
                {
                    "key": "fail",
                    "header": "No Score Sound",
                    "type": "sound"
                },
                {
                    "key": "spawn",
                    "header": "Ball Spawn Sound",
                    "type": "sound"
                },
                {
                    "key": "musicVolume",
                    "header": "Volume",
                    "type": "range",
                    "options": {
                        "minValue": 0,
                        "maxValue": 1,
                        "stepSize": "0.1"
                    }
                },
                {
                    "key": "boardImg",
                    "header": "Basketball Board image",
                    "type": "image"
                },
                {
                    "key": "hoopImg",
                    "header": "Hoop Image",
                    "type": "image"
                },
                {
                    "key": "hoopEndImg",
                    "header": "Hoop End Image",
                    "type": "image"
                },
                {
                    "key": "ballImg",
                    "header": "BasketBall Image",
                    "type": "image"
                },
                {
                    "key": "platform",
                    "header": "Platform Image",
                    "type": "image"
                },
                {
                    "key": "addImg",
                    "header": "Add Image",
                    "type": "image"
                }
            ]
        },
        {
            "icon": "",
            "key": "Game",
            "header": "Game Settings",
            "disabled": false,
            "fields": [
                {
                    "key": "textColor",
                    "header": "Text Color",
                    "type": "image"
                },
                {
                    "key": "enableTimer",
                    "header": "Enable Timer",
                    "type": "boolean"
                },
                {
                    "key": "timer",
                    "header": "Timer",
                    "type": "range",
                    "options": {
                        "minValue": 10,
                        "maxValue": 200,
                        "stepSize": "10"
                    }
                },
                {
                    "key": "instruction1",
                    "header": "Game instruction 1",
                    "type": "text"
                },
                {
                    "key": "instruction2",
                    "header": "Game instruction 2",
                    "type": "text"
                },
                {
                    "key": "instruction3",
                    "header": "Game instruction 3",
                    "type": "text"
                },
                {
                    "key": "instruction4",
                    "header": "Game instruction 4",
                    "type": "text"
                },
                {
                    "key": "winText",
                    "header": "Game Win",
                    "type": "text"
                },
                {
                    "key": "loseText",
                    "header": "Game Lose",
                    "type": "text"
                },
                {
                    "key": "scoreText",
                    "header": "Score Text Area",
                    "type": "text"
                },
                {
                    "key": "startingScoreGain",
                    "header": "Starting Score Gain ",
                    "type": "number"
                },
                {
                    "key": "winScore",
                    "header": "Minimum Score for Win",
                    "type": "number"
                },
                {
                    "key": "boardMove",
                    "header": "Board Move Start Score",
                    "type": "range",
                    "options": {
                        "minValue": 10,
                        "maxValue": 200,
                        "stepSize": "1"
                    }
                }
            ]
        }
    ],
    "config": {
        "preGame": {
            "bgImg": "https://frontend.apps.playcent.com/c21009e69aec44c599b722a25215751d/assets/bg.png",
            "bg2Img": "https://frontend.apps.playcent.com/c21009e69aec44c599b722a25215751d/assets/bg2.jpg",
            "logo": "https://frontend.apps.playcent.com/c21009e69aec44c599b722a25215751d/assets/start_ball.png",
            "title": "Basket Ball Fury",
            "ballThrow": "https://frontend.apps.playcent.com/c21009e69aec44c599b722a25215751d/assets/whoosh.wav",
            "ballHit": "https://frontend.apps.playcent.com/c21009e69aec44c599b722a25215751d/assets/backboard.wav",
            "score": "https://frontend.apps.playcent.com/c21009e69aec44c599b722a25215751d/assets/score.wav",
            "fail": "https://frontend.apps.playcent.com/c21009e69aec44c599b722a25215751d/assets/fail.wav",
            "spawn": "https://frontend.apps.playcent.com/c21009e69aec44c599b722a25215751d/assets/spawn.wav",
            "musicVolume": "0.2",
            "boardImg": "https://frontend.apps.playcent.com/c21009e69aec44c599b722a25215751d/assets/basket.png",
            "hoopImg": "https://frontend.apps.playcent.com/c21009e69aec44c599b722a25215751d/assets/rim.png",
            "hoopEndImg": "https://frontend.apps.playcent.com/c21009e69aec44c599b722a25215751d/assets/side.png",
            "ballImg": "https://frontend.apps.playcent.com/c21009e69aec44c599b722a25215751d/assets/basketball.png",
            "ground": "https://frontend.apps.playcent.com/c21009e69aec44c599b722a25215751d/assets/court.jpg",
            "platform": "https://frontend.apps.playcent.com/c21009e69aec44c599b722a25215751d/assets/box.png",
            "addImg": "https://frontend.apps.playcent.com/c21009e69aec44c599b722a25215751d/assets/Screenshot 2020-07-09 at 12.20.14 PM.png"
        },
        "game": {
            "textColor": "",
            "enableTimer": "true",
            "timer": "30",
            "instruction1": "Quickly Drag Ball Up to Shoot",
            "instruction2": "Shoot The Ball Inside ",
            "instruction3": "The Rim To Score Points",
            "instruction4": "Score More Than 100 To Win",
            "winText": "You Won",
            "loseText": "Try Again",
            "scoreText": "Good Job",
            "startingScoreGain": "20",
            "winScore": "20",
            "boardMove": ""
        }
    }
}